<?xml version="1.0" encoding="UTF-8" standalone="no"?>
<!-- Created with Inkscape (http://www.inkscape.org/) -->

<svg
   xmlns:dc="http://purl.org/dc/elements/1.1/"
   xmlns:cc="http://creativecommons.org/ns#"
   xmlns:rdf="http://www.w3.org/1999/02/22-rdf-syntax-ns#"
   xmlns:svg="http://www.w3.org/2000/svg"
   xmlns="http://www.w3.org/2000/svg"
   xmlns:sodipodi="http://sodipodi.sourceforge.net/DTD/sodipodi-0.dtd"
   xmlns:inkscape="http://www.inkscape.org/namespaces/inkscape"
   width="244.15625"
   height="59.46875"
   id="svg2"
   version="1.1"
   inkscape:version="0.48.3.1 r9886"
   sodipodi:docname="instrument_ldpreload.svg"
   inkscape:export-filename="/home/trahay/Documents/recherche/articles/proper_2012/fig/instrument_ldpreload.png"
   inkscape:export-xdpi="299.61588"
   inkscape:export-ydpi="299.61588">
  <defs
     id="defs4">
    <marker
       inkscape:stockid="Arrow1Mstart"
       orient="auto"
       refY="0"
       refX="0"
       id="Arrow1Mstart"
       style="overflow:visible">
      <path
         id="path4069"
         d="M 0,0 5,-5 -12.5,0 5,5 0,0 z"
         style="fill-rule:evenodd;stroke:#000000;stroke-width:1pt;marker-start:none"
         transform="matrix(0.4,0,0,0.4,4,0)"
         inkscape:connector-curvature="0" />
    </marker>
    <marker
       inkscape:stockid="Arrow2Mend"
       orient="auto"
       refY="0"
       refX="0"
       id="Arrow2Mend"
       style="overflow:visible">
      <path
         id="path4090"
         style="font-size:12px;fill-rule:evenodd;stroke-width:0.625;stroke-linejoin:round"
         d="M 8.7185878,4.0337352 -2.2072895,0.01601326 8.7185884,-4.0017078 c -1.7454984,2.3720609 -1.7354408,5.6174519 -6e-7,8.035443 z"
         transform="scale(-0.6,-0.6)"
         inkscape:connector-curvature="0" />
    </marker>
    <marker
       inkscape:stockid="Arrow2Mend"
       orient="auto"
       refY="0"
       refX="0"
       id="Arrow2Mend-2"
       style="overflow:visible">
      <path
         inkscape:connector-curvature="0"
         id="path4090-5"
         style="font-size:12px;fill-rule:evenodd;stroke-width:0.625;stroke-linejoin:round"
         d="M 8.7185878,4.0337352 -2.2072895,0.01601326 8.7185884,-4.0017078 c -1.7454984,2.3720609 -1.7354408,5.6174519 -6e-7,8.035443 z"
         transform="scale(-0.6,-0.6)" />
    </marker>
    <marker
       inkscape:stockid="Arrow2Mend"
       orient="auto"
       refY="0"
       refX="0"
       id="Arrow2Mend-2-0"
       style="overflow:visible">
      <path
         inkscape:connector-curvature="0"
         id="path4090-5-9"
         style="font-size:12px;fill-rule:evenodd;stroke-width:0.625;stroke-linejoin:round"
         d="M 8.7185878,4.0337352 -2.2072895,0.01601326 8.7185884,-4.0017078 c -1.7454984,2.3720609 -1.7354408,5.6174519 -6e-7,8.035443 z"
         transform="scale(-0.6,-0.6)" />
    </marker>
  </defs>
  <sodipodi:namedview
     id="base"
     pagecolor="#ffffff"
     bordercolor="#666666"
     borderopacity="1.0"
     inkscape:pageopacity="0.0"
     inkscape:pageshadow="2"
     inkscape:zoom="2.610894"
     inkscape:cx="52.436196"
     inkscape:cy="-12.589028"
     inkscape:document-units="px"
     inkscape:current-layer="layer1"
     showgrid="false"
     inkscape:window-width="1920"
     inkscape:window-height="1060"
     inkscape:window-x="1363"
     inkscape:window-y="-3"
     inkscape:window-maximized="1"
     showguides="true"
     inkscape:guide-bbox="true"
     fit-margin-top="0"
     fit-margin-left="0"
     fit-margin-right="0"
     fit-margin-bottom="0" />
  <metadata
     id="metadata7">
    <rdf:RDF>
      <cc:Work
         rdf:about="">
        <dc:format>image/svg+xml</dc:format>
        <dc:type
           rdf:resource="http://purl.org/dc/dcmitype/StillImage" />
        <dc:title></dc:title>
      </cc:Work>
    </rdf:RDF>
  </metadata>
  <g
     inkscape:label="Calque 1"
     inkscape:groupmode="layer"
     id="layer1"
     transform="translate(0.84375,1.78125)">
    <flowRoot
       xml:space="preserve"
       id="flowRoot3029"
       style="font-size:6px;font-style:normal;font-weight:normal;line-height:125%;letter-spacing:0px;word-spacing:0px;fill:#000000;fill-opacity:1;stroke:none;font-family:Sans"><flowRegion
         id="flowRegion3031"><rect
           id="rect3033"
           width="71.428574"
           height="38.57143"
           x="5.3571429"
           y="28.433609"
           style="font-size:6px" /></flowRegion><flowPara
         id="flowPara3035" /></flowRoot>    <flowRoot
       xml:space="preserve"
       id="flowRoot3043"
       style="font-size:6px;font-style:normal;font-weight:normal;line-height:125%;letter-spacing:0px;word-spacing:0px;fill:#000000;fill-opacity:1;stroke:none;font-family:Sans"><flowRegion
         id="flowRegion3045"><rect
           id="rect3047"
           width="120"
           height="87.14286"
           x="12.142858"
           y="23.076468"
           style="font-size:6px" /></flowRegion><flowPara
         id="flowPara3049" /></flowRoot>    <flowRoot
       xml:space="preserve"
       id="flowRoot3051"
       style="font-size:1px;font-style:normal;font-weight:normal;line-height:125%;letter-spacing:0px;word-spacing:0px;fill:#000000;fill-opacity:1;stroke:none;font-family:Sans"><flowRegion
         id="flowRegion3053"><rect
           id="rect3055"
           width="124.28571"
           height="79.285713"
           x="1.4285715"
           y="18.433609" /></flowRegion><flowPara
         id="flowPara3057" /></flowRoot>    <g
       id="g2995"
       transform="translate(-37.5,-26.071429)">
      <rect
         y="25.933609"
         x="37.857143"
         height="12.857144"
         width="62.857147"
         id="rect2985"
         style="fill:#b3b3b3;fill-opacity:1;stroke:none" />
      <flowRoot
         style="font-size:8px;font-style:normal;font-weight:normal;line-height:125%;letter-spacing:0px;word-spacing:0px;fill:#000000;fill-opacity:1;stroke:none;font-family:Sans"
         id="flowRoot2987"
         xml:space="preserve"><flowRegion
           id="flowRegion2989"><rect
             style="font-size:8px"
             y="26.647896"
             x="38.214287"
             height="52.857143"
             width="134.28572"
             id="rect2991" /></flowRegion><flowPara
           id="flowPara2993">Application</flowPara></flowRoot>    </g>
    <rect
       style="fill:none;stroke:#000000;stroke-width:0.95648271;stroke-opacity:1"
       id="rect3910"
       width="63.571426"
       height="58.057327"
       x="-0.35714287"
       y="-0.85210478" />
    <g
       transform="translate(137.6172,-26.508262)"
       id="g5424">
      <rect
         style="fill:#b3b3b3;fill-opacity:1;stroke:none"
         id="rect5426"
         width="67.321442"
         height="12.857143"
         x="37.5"
         y="25.933609" />
      <flowRoot
         xml:space="preserve"
         id="flowRoot5428"
         style="font-size:8px;font-style:normal;font-weight:normal;line-height:125%;letter-spacing:0px;word-spacing:0px;fill:#000000;fill-opacity:1;stroke:none;font-family:Sans"><flowRegion
           id="flowRegion5430"><rect
             id="rect5432"
             width="134.28572"
             height="52.857143"
             x="38.214287"
             y="26.647896"
             style="font-size:8px" /></flowRegion><flowPara
           id="flowPara5434">libfoo</flowPara></flowRoot>    </g>
    <rect
       y="-1.288938"
       x="174.76006"
       height="57.888683"
       width="68.066345"
       id="rect5436"
       style="fill:none;stroke:#000000;stroke-opacity:1" />
    <flowRoot
       transform="translate(170.47434,-12.722547)"
       style="font-size:6px;font-style:normal;font-weight:normal;line-height:125%;letter-spacing:0px;word-spacing:0px;fill:#000000;fill-opacity:1;stroke:none;font-family:Sans"
       id="flowRoot5438"
       xml:space="preserve"><flowRegion
         id="flowRegion5440"><rect
           y="21.647896"
           x="5"
           height="142.14285"
           width="147.5"
           id="rect5442" /></flowRegion><flowPara
         id="flowPara5444"> ...</flowPara><flowPara
         id="flowPara5446"> f ( ):</flowPara><flowPara
         id="flowPara5448">    ...</flowPara><flowPara
         id="flowPara5458">    ret </flowPara><flowPara
         id="flowPara5460" /></flowRoot>    <flowRoot
       transform="translate(-4.27637,0.901344)"
       style="font-size:6px;font-style:normal;font-weight:normal;text-align:center;line-height:125%;letter-spacing:0px;word-spacing:0px;text-anchor:middle;fill:#000000;fill-opacity:1;stroke:none;font-family:Sans"
       id="flowRoot5438-0"
       xml:space="preserve"><flowRegion
         id="flowRegion5440-8"><rect
           y="21.647896"
           x="5"
           height="127.20544"
           width="61.705631"
           id="rect5442-8"
           style="text-align:center;text-anchor:middle" /></flowRegion><flowPara
         id="flowPara5448-3">...</flowPara><flowPara
         id="flowPara3188">call f ( )</flowPara><flowPara
         id="flowPara5460-0">...</flowPara></flowRoot>    <g
       transform="translate(41.226352,-26.064635)"
       id="g5424-8">
      <rect
         style="fill:#b3b3b3;fill-opacity:1;stroke:none"
         id="rect5426-7"
         width="67.321442"
         height="12.857143"
         x="37.5"
         y="25.933609" />
      <flowRoot
         xml:space="preserve"
         id="flowRoot5428-0"
         style="font-size:8px;font-style:normal;font-weight:normal;line-height:125%;letter-spacing:0px;word-spacing:0px;fill:#000000;fill-opacity:1;stroke:none;font-family:Sans"><flowRegion
           id="flowRegion5430-7"><rect
             id="rect5432-4"
             width="134.28572"
             height="52.857143"
             x="38.214287"
             y="26.647896"
             style="font-size:8px" /></flowRegion><flowPara
           id="flowPara5434-3">libeztrace-foo</flowPara></flowRoot>    </g>
    <rect
       y="-0.84531134"
       x="78.369209"
       height="57.888683"
       width="68.066345"
       id="rect5436-8"
       style="fill:none;stroke:#000000;stroke-opacity:1" />
    <flowRoot
       transform="translate(74.083492,-12.27892)"
       style="font-size:6px;font-style:normal;font-weight:normal;line-height:125%;letter-spacing:0px;word-spacing:0px;fill:#000000;fill-opacity:1;stroke:none;font-family:Sans"
       id="flowRoot5438-4"
       xml:space="preserve"><flowRegion
         id="flowRegion5440-9"><rect
           y="21.647896"
           x="5"
           height="142.14285"
           width="147.5"
           id="rect5442-0" /></flowRegion><flowPara
         id="flowPara5444-8"> ...</flowPara><flowPara
         id="flowPara5446-7"> f ( ) :</flowPara><flowPara
         id="flowPara5448-0">    RECORD_EVENT</flowPara><flowPara
         id="flowPara5450-3">    call f_orig ( )</flowPara><flowPara
         id="flowPara4770-2">    RECORD_EVENT</flowPara><flowPara
         id="flowPara5458-1">    ret </flowPara><flowPara
         id="flowPara5460-4" /></flowRoot>    <path
       style="fill:none;stroke:#000000;stroke-width:1px;stroke-linecap:butt;stroke-linejoin:miter;stroke-opacity:1;marker-end:url(#Arrow2Mend-2)"
       d="M 46.72729,35.664699 81.198241,23.025351"
       id="path3372"
       inkscape:connector-curvature="0"
       transform="translate(-0.96875,-1.4375)" />
    <path
       style="fill:none;stroke:#000000;stroke-width:1px;stroke-linecap:butt;stroke-linejoin:miter;stroke-opacity:1;marker-end:url(#Arrow2Mend-2)"
       d="M 125.43769,37.482788 173.69702,22.162366"
       id="path3372-9"
       inkscape:connector-curvature="0"
       sodipodi:nodetypes="cc" />
  </g>
</svg>
